<svg xmlns="http://www.w3.org/2000/svg" xmlns:xlink="http://www.w3.org/1999/xlink" width="31" height="34" viewBox="0 0 31 34">
  <defs>
    <clipPath>
      <rect width="31" height="34" transform="translate(0 0)" fill="none"/>
    </clipPath>
  </defs>
  <g transform="translate(0 0)">
    <g clip-path="url(#clip-path)">
      <path d="M.574,7.934,15.5.567,30.426,7.934,15.5,14.733ZM15.5,33.433l14.926-7.367V7.934L15.5,14.733Zm0,0L.574,26.067V7.934l14.926,6.8Z" fill="none" stroke="#161615" stroke-linecap="round" stroke-linejoin="round" stroke-width="1.141"/>
      <path d="M26.1,24.1l3.225,1.469m-17.053-4.83L15.5,19.273l3.225,1.469M1.673,25.572,4.9,24.1" fill="none" stroke="#161615" stroke-linecap="round" stroke-width="1.057"/>
    </g>
  </g>
</svg>
