<svg xmlns="http://www.w3.org/2000/svg" xmlns:xlink="http://www.w3.org/1999/xlink" width="33" height="34" viewBox="0 0 33 34">
  <defs>
    <clipPath id="clip-path">
      <rect id="Rectangle_42" data-name="Rectangle 42" width="33" height="34" transform="translate(0 0)" fill="none"/>
    </clipPath>
  </defs>
  <g id="Group_44" data-name="Group 44" transform="translate(0 0)">
    <g id="Group_43" data-name="Group 43" clip-path="url(#clip-path)">
      <path id="Path_10" data-name="Path 10" d="M26.529,13.481A12.942,12.942,0,1,1,13.589.643,12.889,12.889,0,0,1,26.529,13.481Z" fill="none" stroke="#161615" stroke-linejoin="round" stroke-width="1.289"/>
      <line id="Line_1" data-name="Line 1" x2="10.06" y2="10.378" transform="translate(22.294 22.98)" fill="none" stroke="#161615" stroke-linecap="round" stroke-linejoin="round" stroke-width="1.289"/>
    </g>
  </g>
</svg>
