<svg xmlns="http://www.w3.org/2000/svg" width="56.154" height="63.021" viewBox="0 0 56.154 63.021">
  <g data-name="Group 484" transform="translate(-803.53 -3295.449)">
    <path id="Path_232" data-name="Path 232" d="M178.118,29.3c-3.258.82-9.642.6-17.76-4.33S146.966,13.881,148.585,11.22c1.467-2.414,8.092-1.128,15.368,2.809" transform="translate(666.895 3286.708)" fill="none" stroke="#f95658" stroke-linecap="round" stroke-miterlimit="10" stroke-width="2.5"/>
    <path id="Path_233" data-name="Path 233" d="M184.953,31.086a4.326,4.326,0,1,1,.462,6.521" transform="translate(657.964 3281.879)" fill="none" stroke="#f95658" stroke-linecap="round" stroke-linejoin="round" stroke-width="2.5"/>
    <path id="Path_234" data-name="Path 234" d="M156.18,26.853,134.533,48.5l24.224,24.223L188.187,43.29l-.246-14.633L178.6,19.315l-14.634-.247-4.679,4.679" transform="translate(670.246 3284.499)" fill="none" stroke="#f95658" stroke-linejoin="round" stroke-width="2.5"/>
  </g>
</svg>
